딥러닝
…
원본 이미지 데이터에서 라벨 데이터를 준비한다.

library(glue)

file_names <- list.files("data/captcha_dataset/")

captcha_labels <- str_extract(file_names, "[\\w\\d]+?(?=\\.)")

captcha_df <- tibble(label = captcha_labels, 
       captcha = glue("data/captcha_dataset/{file_names}"))

captcha_df

# A tibble: 1,070 x 2
   label captcha                       
   <chr> <glue>                        
 1 226md data/captcha_dataset/226md.png
 2 22d5n data/captcha_dataset/22d5n.png
 3 2356g data/captcha_dataset/2356g.png
 4 23mdg data/captcha_dataset/23mdg.png
 5 23n88 data/captcha_dataset/23n88.png
 6 243mm data/captcha_dataset/243mm.png
 7 244e2 data/captcha_dataset/244e2.png
 8 245y5 data/captcha_dataset/245y5.png
 9 24f6w data/captcha_dataset/24f6w.png
10 24pew data/captcha_dataset/24pew.png
# … with 1,060 more rows
…
# for(i in 1:10) {  randomized_character("ywn6f") }

captcha_trained <- captcha_df %>% 
  mutate(answer = rbinom(nrow(captcha_df), 1, prob=0.9))  %>% 
  mutate(predicted = ifelse(answer == 1, label, map_chr(label, randomized_character))) 

captcha_trained

# A tibble: 1,070 x 4
   label captcha                        answer predicted
   <chr> <glue>                          <int> <chr>    
 1 226md data/captcha_dataset/226md.png      1 226md    
 2 22d5n data/captcha_dataset/22d5n.png      1 22d5n    
 3 2356g data/captcha_dataset/2356g.png      1 2356g    
 4 23mdg data/captcha_dataset/23mdg.png      1 23mdg    
 5 23n88 data/captcha_dataset/23n88.png      1 23n88    
 6 243mm data/captcha_dataset/243mm.png      1 243mm    
 7 244e2 data/captcha_dataset/244e2.png      1 244e2    
 8 245y5 data/captcha_dataset/245y5.png      1 245y5    
 9 24f6w data/captcha_dataset/24f6w.png      1 24f6w    
10 24pew data/captcha_dataset/24pew.png      0 2Cpew    
# … with 1,060 more rows
…
