딥러닝
…
read_srt() 함수를 사용하여 전체 내용을 살펴보면 다음과 같다.

(keynote <- read_srt(path = "data/julia_silge/15_silge_english.srt", collapse = " "))

# A tibble: 885 x 4
       n start   end subtitle                                                   
   <int> <dbl> <dbl> <chr>                                                      
 1     1  1.12  8.64 Hi my name is julia silge.  I'm a data scientist and softw~
 2     2  6.08 13.5  and I'd like to thank the the organizers of the R user gro~
 3     3 11.2  18.1  so much for having me.  Today speak to you                 
 4     4 15.5  24    I am so happy to be speaking specifically today about crea~
 5     5 21.1  29.4  features for machine learning from text data for a couple ~
 6     6 27.2  34.5  Having a better understanding of what we do to take text d~
 7     7 31.7  36.9  and then to make it appropriate                            
 8     8 34.5  42.9  as an input for machine learning algorithms has many benef~
 9     9 39.7  45.0  both if you are directly getting ready                     
10    10 42.9  50.7  to train a model or if you're at the beginning of some tex~
# ... with 875 more rows
…
